Start,End
2.463,5.227
6.506,7.593
8.543,9.369001
10.228999,13.173
13.961,15.122
15.579,16.701
17.147,18.324
19.016,20.933
21.375,22.837
23.401,24.56
25.088,26.582
27.125,28.207
28.731,29.930998
30.471,31.528
32.0,32.922
33.35,34.431
34.867,36.152
